{"_id":{"$oid":"5f75ddc83bf5eb9572c1f047"},"patient_id":1.0,"first_name":"first_name_1","last_name":"last_name_1","age":31.0}
{"_id":{"$oid":"5f75de013bf5eb9572c1f048"},"patient_id":2.0,"first_name":"first_name_2","last_name":"last_name_2","age":46.0,"height":170.0,"weight":74.0}
{"_id":{"$oid":"5f75de0f3bf5eb9572c1f049"},"patient_id":3.0,"first_name":"first_name_3","last_name":"last_name_3","age":46.0,"height":170.0,"weight":74.0,"address":{"zipcode":"59000","city":"Lille"}}
{"_id":{"$oid":"5f75de233bf5eb9572c1f04a"},"patient_id":4.0,"first_name":"first_name_4","last_name":"last_name_3","age":69.0,"height":172.0,"weight":68.0}
{"_id":{"$oid":"5f75de233bf5eb9572c1f04b"},"patient_id":5.0,"first_name":"first_name_5","last_name":"last_name_5","sex":"H","age":35.0,"height":181.0,"weight":80.0,"address":{"zipcode":"59000","city":"Lille"}}
{"_id":{"$oid":"5f75de233bf5eb9572c1f04c"},"patient_id":6.0,"first_name":"first_name_6","last_name":"last_name_6","sex":"F","age":37.0,"height":178.0,"address":{"zipcode":"59100","city":"Roubaix"}}
{"_id":{"$oid":"5f75de233bf5eb9572c1f04d"},"patient_id":7.0,"first_name":"first_name_7","last_name":"last_name_7","sex":"F","age":33.0,"height":171.0,"weight":60.0,"address":{"zipcode":"59113","city":"Seclin"}}
{"_id":{"$oid":"5f75de233bf5eb9572c1f04e"},"patient_id":8.0,"first_name":"first_name_8","last_name":"last_name_8","sex":"H","age":33.0,"height":175.0,"weight":69.0,"address":{"zipcode":"59200","city":"Sourcoing"}}
{"_id":{"$oid":"5f75de5fc6621981e33f024a"},"patient_id":1000.0,"age":64.0,"first_name":"first_name_1000","height":162.0,"last_name":"last_name_1000","weight":68.0}
